^S:\PROJECTS\CPP\CODE\FRAMETRANSFORMATIONS\FRAMETRANSFORMATIONTESTS\MAIN.CPP
S:\PROJECTS\CPP\CODE\FRAMETRANSFORMATIONS\FRAMETRANSFORMATIONTESTS\DEBUG\VC141.PDB
S:\PROJECTS\CPP\CODE\FRAMETRANSFORMATIONS\FRAMETRANSFORMATIONTESTS\DEBUG\VC141.IDB
S:\PROJECTS\CPP\CODE\FRAMETRANSFORMATIONS\FRAMETRANSFORMATIONTESTS\DEBUG\MAIN.OBJ
