^S:\PROJECTS\CPP\CODE\FRAMETRANSFORMATIONS\FRAMETRANSFORMATIONS\FRAMETRANSFORMATIONS.CPP
C:\WINDOWS\GLOBALIZATION\SORTING\SORTDEFAULT.NLS
C:\PROGRAM FILES (X86)\MICROSOFT VISUAL STUDIO\2017\COMMUNITY\VC\TOOLS\MSVC\14.12.25827\BIN\HOSTX86\X86\1033\CLUI.DLL
C:\WINDOWS\SYSTEM32\TZRES.DLL
S:\PROJECTS\CPP\CODE\FRAMETRANSFORMATIONS\FRAMETRANSFORMATIONS\FRAMETRANSFORMATIONS.H
S:\PROJECTS\CPP\CODE\MATHS\EIGEN-GIT-MIRROR\EIGEN\GEOMETRY
S:\PROJECTS\CPP\CODE\MATHS\EIGEN-GIT-MIRROR\EIGEN\CORE
S:\PROJECTS\CPP\CODE\MATHS\EIGEN-GIT-MIRROR\EIGEN\SRC\CORE\UTIL\DISABLESTUPIDWARNINGS.H
C:\PROGRAM FILES (X86)\MICROSOFT VISUAL STUDIO\2017\COMMUNITY\VC\TOOLS\MSVC\14.12.25827\INCLUDE\NEW
C:\PROGRAM FILES (X86)\MICROSOFT VISUAL STUDIO\2017\COMMUNITY\VC\TOOLS\MSVC\14.12.25827\INCLUDE\EXCEPTION
C:\PROGRAM FILES (X86)\MICROSOFT VISUAL STUDIO\2017\COMMUNITY\VC\TOOLS\MSVC\14.12.25827\INCLUDE\TYPE_TRAITS
C:\PROGRAM FILES (X86)\MICROSOFT VISUAL STUDIO\2017\COMMUNITY\VC\TOOLS\MSVC\14.12.25827\INCLUDE\XSTDDEF
C:\PROGRAM FILES (X86)\MICROSOFT VISUAL STUDIO\2017\COMMUNITY\VC\TOOLS\MSVC\14.12.25827\INCLUDE\CSTDDEF
C:\PROGRAM FILES (X86)\WINDOWS KITS\10\INCLUDE\10.0.16299.0\UCRT\STDDEF.H
C:\PROGRAM FILES (X86)\WINDOWS KITS\10\INCLUDE\10.0.16299.0\UCRT\CORECRT.H
C:\PROGRAM FILES (X86)\MICROSOFT VISUAL STUDIO\2017\COMMUNITY\VC\TOOLS\MSVC\14.12.25827\INCLUDE\VCRUNTIME.H
C:\PROGRAM FILES (X86)\MICROSOFT VISUAL STUDIO\2017\COMMUNITY\VC\TOOLS\MSVC\14.12.25827\INCLUDE\SAL.H
C:\PROGRAM FILES (X86)\MICROSOFT VISUAL STUDIO\2017\COMMUNITY\VC\TOOLS\MSVC\14.12.25827\INCLUDE\CONCURRENCYSAL.H
C:\PROGRAM FILES (X86)\MICROSOFT VISUAL STUDIO\2017\COMMUNITY\VC\TOOLS\MSVC\14.12.25827\INCLUDE\VADEFS.H
C:\PROGRAM FILES (X86)\MICROSOFT VISUAL STUDIO\2017\COMMUNITY\VC\TOOLS\MSVC\14.12.25827\INCLUDE\XTR1COMMON
C:\PROGRAM FILES (X86)\MICROSOFT VISUAL STUDIO\2017\COMMUNITY\VC\TOOLS\MSVC\14.12.25827\INCLUDE\YVALS.H
C:\PROGRAM FILES (X86)\MICROSOFT VISUAL STUDIO\2017\COMMUNITY\VC\TOOLS\MSVC\14.12.25827\INCLUDE\XKEYCHECK.H
C:\PROGRAM FILES (X86)\MICROSOFT VISUAL STUDIO\2017\COMMUNITY\VC\TOOLS\MSVC\14.12.25827\INCLUDE\CRTDEFS.H
C:\PROGRAM FILES (X86)\MICROSOFT VISUAL STUDIO\2017\COMMUNITY\VC\TOOLS\MSVC\14.12.25827\INCLUDE\USE_ANSI.H
C:\PROGRAM FILES (X86)\MICROSOFT VISUAL STUDIO\2017\COMMUNITY\VC\TOOLS\MSVC\14.12.25827\INCLUDE\CSTDLIB
C:\PROGRAM FILES (X86)\WINDOWS KITS\10\INCLUDE\10.0.16299.0\UCRT\STDLIB.H
C:\PROGRAM FILES (X86)\WINDOWS KITS\10\INCLUDE\10.0.16299.0\UCRT\CORECRT_MALLOC.H
C:\PROGRAM FILES (X86)\WINDOWS KITS\10\INCLUDE\10.0.16299.0\UCRT\CORECRT_SEARCH.H
C:\PROGRAM FILES (X86)\WINDOWS KITS\10\INCLUDE\10.0.16299.0\UCRT\CORECRT_WSTDLIB.H
C:\PROGRAM FILES (X86)\MICROSOFT VISUAL STUDIO\2017\COMMUNITY\VC\TOOLS\MSVC\14.12.25827\INCLUDE\LIMITS.H
C:\PROGRAM FILES (X86)\WINDOWS KITS\10\INCLUDE\10.0.16299.0\UCRT\MATH.H
C:\PROGRAM FILES (X86)\WINDOWS KITS\10\INCLUDE\10.0.16299.0\UCRT\CORECRT_MATH.H
C:\PROGRAM FILES (X86)\MICROSOFT VISUAL STUDIO\2017\COMMUNITY\VC\TOOLS\MSVC\14.12.25827\INCLUDE\INITIALIZER_LIST
C:\PROGRAM FILES (X86)\WINDOWS KITS\10\INCLUDE\10.0.16299.0\UCRT\MALLOC.H
C:\PROGRAM FILES (X86)\MICROSOFT VISUAL STUDIO\2017\COMMUNITY\VC\TOOLS\MSVC\14.12.25827\INCLUDE\VCRUNTIME_EXCEPTION.H
C:\PROGRAM FILES (X86)\MICROSOFT VISUAL STUDIO\2017\COMMUNITY\VC\TOOLS\MSVC\14.12.25827\INCLUDE\EH.H
C:\PROGRAM FILES (X86)\WINDOWS KITS\10\INCLUDE\10.0.16299.0\UCRT\CORECRT_TERMINATE.H
C:\PROGRAM FILES (X86)\MICROSOFT VISUAL STUDIO\2017\COMMUNITY\VC\TOOLS\MSVC\14.12.25827\INCLUDE\VCRUNTIME_NEW.H
S:\PROJECTS\CPP\CODE\MATHS\EIGEN-GIT-MIRROR\EIGEN\SRC\CORE\UTIL\MACROS.H
C:\PROGRAM FILES (X86)\MICROSOFT VISUAL STUDIO\2017\COMMUNITY\VC\TOOLS\MSVC\14.12.25827\INCLUDE\COMPLEX
C:\PROGRAM FILES (X86)\MICROSOFT VISUAL STUDIO\2017\COMMUNITY\VC\TOOLS\MSVC\14.12.25827\INCLUDE\YMATH.H
C:\PROGRAM FILES (X86)\MICROSOFT VISUAL STUDIO\2017\COMMUNITY\VC\TOOLS\MSVC\14.12.25827\INCLUDE\CMATH
C:\PROGRAM FILES (X86)\MICROSOFT VISUAL STUDIO\2017\COMMUNITY\VC\TOOLS\MSVC\14.12.25827\INCLUDE\XTGMATH.H
C:\PROGRAM FILES (X86)\MICROSOFT VISUAL STUDIO\2017\COMMUNITY\VC\TOOLS\MSVC\14.12.25827\INCLUDE\SSTREAM
C:\PROGRAM FILES (X86)\MICROSOFT VISUAL STUDIO\2017\COMMUNITY\VC\TOOLS\MSVC\14.12.25827\INCLUDE\STRING
C:\PROGRAM FILES (X86)\MICROSOFT VISUAL STUDIO\2017\COMMUNITY\VC\TOOLS\MSVC\14.12.25827\INCLUDE\ISTREAM
C:\PROGRAM FILES (X86)\MICROSOFT VISUAL STUDIO\2017\COMMUNITY\VC\TOOLS\MSVC\14.12.25827\INCLUDE\OSTREAM
C:\PROGRAM FILES (X86)\MICROSOFT VISUAL STUDIO\2017\COMMUNITY\VC\TOOLS\MSVC\14.12.25827\INCLUDE\IOS
C:\PROGRAM FILES (X86)\MICROSOFT VISUAL STUDIO\2017\COMMUNITY\VC\TOOLS\MSVC\14.12.25827\INCLUDE\XLOCNUM
C:\PROGRAM FILES (X86)\MICROSOFT VISUAL STUDIO\2017\COMMUNITY\VC\TOOLS\MSVC\14.12.25827\INCLUDE\CLIMITS
C:\PROGRAM FILES (X86)\MICROSOFT VISUAL STUDIO\2017\COMMUNITY\VC\TOOLS\MSVC\14.12.25827\INCLUDE\CSTDIO
C:\PROGRAM FILES (X86)\WINDOWS KITS\10\INCLUDE\10.0.16299.0\UCRT\STDIO.H
C:\PROGRAM FILES (X86)\WINDOWS KITS\10\INCLUDE\10.0.16299.0\UCRT\CORECRT_WSTDIO.H
C:\PROGRAM FILES (X86)\WINDOWS KITS\10\INCLUDE\10.0.16299.0\UCRT\CORECRT_STDIO_CONFIG.H
C:\PROGRAM FILES (X86)\MICROSOFT VISUAL STUDIO\2017\COMMUNITY\VC\TOOLS\MSVC\14.12.25827\INCLUDE\STREAMBUF
C:\PROGRAM FILES (X86)\MICROSOFT VISUAL STUDIO\2017\COMMUNITY\VC\TOOLS\MSVC\14.12.25827\INCLUDE\XIOSBASE
C:\PROGRAM FILES (X86)\MICROSOFT VISUAL STUDIO\2017\COMMUNITY\VC\TOOLS\MSVC\14.12.25827\INCLUDE\XLOCALE
C:\PROGRAM FILES (X86)\MICROSOFT VISUAL STUDIO\2017\COMMUNITY\VC\TOOLS\MSVC\14.12.25827\INCLUDE\CSTRING
C:\PROGRAM FILES (X86)\WINDOWS KITS\10\INCLUDE\10.0.16299.0\UCRT\STRING.H
C:\PROGRAM FILES (X86)\WINDOWS KITS\10\INCLUDE\10.0.16299.0\UCRT\CORECRT_MEMORY.H
C:\PROGRAM FILES (X86)\WINDOWS KITS\10\INCLUDE\10.0.16299.0\UCRT\CORECRT_MEMCPY_S.H
C:\PROGRAM FILES (X86)\WINDOWS KITS\10\INCLUDE\10.0.16299.0\UCRT\ERRNO.H
C:\PROGRAM FILES (X86)\MICROSOFT VISUAL STUDIO\2017\COMMUNITY\VC\TOOLS\MSVC\14.12.25827\INCLUDE\VCRUNTIME_STRING.H
C:\PROGRAM FILES (X86)\WINDOWS KITS\10\INCLUDE\10.0.16299.0\UCRT\CORECRT_WSTRING.H
C:\PROGRAM FILES (X86)\MICROSOFT VISUAL STUDIO\2017\COMMUNITY\VC\TOOLS\MSVC\14.12.25827\INCLUDE\STDEXCEPT
C:\PROGRAM FILES (X86)\MICROSOFT VISUAL STUDIO\2017\COMMUNITY\VC\TOOLS\MSVC\14.12.25827\INCLUDE\XSTRING
C:\PROGRAM FILES (X86)\MICROSOFT VISUAL STUDIO\2017\COMMUNITY\VC\TOOLS\MSVC\14.12.25827\INCLUDE\XMEMORY0
C:\PROGRAM FILES (X86)\MICROSOFT VISUAL STUDIO\2017\COMMUNITY\VC\TOOLS\MSVC\14.12.25827\INCLUDE\CSTDINT
C:\PROGRAM FILES (X86)\MICROSOFT VISUAL STUDIO\2017\COMMUNITY\VC\TOOLS\MSVC\14.12.25827\INCLUDE\STDINT.H
C:\PROGRAM FILES (X86)\MICROSOFT VISUAL STUDIO\2017\COMMUNITY\VC\TOOLS\MSVC\14.12.25827\INCLUDE\LIMITS
C:\PROGRAM FILES (X86)\MICROSOFT VISUAL STUDIO\2017\COMMUNITY\VC\TOOLS\MSVC\14.12.25827\INCLUDE\CFLOAT
C:\PROGRAM FILES (X86)\WINDOWS KITS\10\INCLUDE\10.0.16299.0\UCRT\FLOAT.H
C:\PROGRAM FILES (X86)\MICROSOFT VISUAL STUDIO\2017\COMMUNITY\VC\TOOLS\MSVC\14.12.25827\INCLUDE\CWCHAR
C:\PROGRAM FILES (X86)\WINDOWS KITS\10\INCLUDE\10.0.16299.0\UCRT\WCHAR.H
C:\PROGRAM FILES (X86)\WINDOWS KITS\10\INCLUDE\10.0.16299.0\UCRT\CORECRT_WCONIO.H
C:\PROGRAM FILES (X86)\WINDOWS KITS\10\INCLUDE\10.0.16299.0\UCRT\CORECRT_WCTYPE.H
C:\PROGRAM FILES (X86)\WINDOWS KITS\10\INCLUDE\10.0.16299.0\UCRT\CORECRT_WDIRECT.H
C:\PROGRAM FILES (X86)\WINDOWS KITS\10\INCLUDE\10.0.16299.0\UCRT\CORECRT_WIO.H
C:\PROGRAM FILES (X86)\WINDOWS KITS\10\INCLUDE\10.0.16299.0\UCRT\CORECRT_SHARE.H
C:\PROGRAM FILES (X86)\WINDOWS KITS\10\INCLUDE\10.0.16299.0\UCRT\CORECRT_WPROCESS.H
C:\PROGRAM FILES (X86)\WINDOWS KITS\10\INCLUDE\10.0.16299.0\UCRT\CORECRT_WTIME.H
C:\PROGRAM FILES (X86)\WINDOWS KITS\10\INCLUDE\10.0.16299.0\UCRT\SYS\STAT.H
C:\PROGRAM FILES (X86)\WINDOWS KITS\10\INCLUDE\10.0.16299.0\UCRT\SYS\TYPES.H
C:\PROGRAM FILES (X86)\MICROSOFT VISUAL STUDIO\2017\COMMUNITY\VC\TOOLS\MSVC\14.12.25827\INCLUDE\XUTILITY
C:\PROGRAM FILES (X86)\MICROSOFT VISUAL STUDIO\2017\COMMUNITY\VC\TOOLS\MSVC\14.12.25827\INCLUDE\UTILITY
C:\PROGRAM FILES (X86)\MICROSOFT VISUAL STUDIO\2017\COMMUNITY\VC\TOOLS\MSVC\14.12.25827\INCLUDE\IOSFWD
C:\PROGRAM FILES (X86)\WINDOWS KITS\10\INCLUDE\10.0.16299.0\UCRT\CRTDBG.H
C:\PROGRAM FILES (X86)\MICROSOFT VISUAL STUDIO\2017\COMMUNITY\VC\TOOLS\MSVC\14.12.25827\INCLUDE\VCRUNTIME_NEW_DEBUG.H
C:\PROGRAM FILES (X86)\MICROSOFT VISUAL STUDIO\2017\COMMUNITY\VC\TOOLS\MSVC\14.12.25827\INCLUDE\XATOMIC0.H
C:\PROGRAM FILES (X86)\MICROSOFT VISUAL STUDIO\2017\COMMUNITY\VC\TOOLS\MSVC\14.12.25827\INCLUDE\INTRIN0.H
C:\PROGRAM FILES (X86)\MICROSOFT VISUAL STUDIO\2017\COMMUNITY\VC\TOOLS\MSVC\14.12.25827\INCLUDE\TYPEINFO
C:\PROGRAM FILES (X86)\MICROSOFT VISUAL STUDIO\2017\COMMUNITY\VC\TOOLS\MSVC\14.12.25827\INCLUDE\VCRUNTIME_TYPEINFO.H
C:\PROGRAM FILES (X86)\MICROSOFT VISUAL STUDIO\2017\COMMUNITY\VC\TOOLS\MSVC\14.12.25827\INCLUDE\XLOCINFO
C:\PROGRAM FILES (X86)\MICROSOFT VISUAL STUDIO\2017\COMMUNITY\VC\TOOLS\MSVC\14.12.25827\INCLUDE\XLOCINFO.H
C:\PROGRAM FILES (X86)\WINDOWS KITS\10\INCLUDE\10.0.16299.0\UCRT\CTYPE.H
C:\PROGRAM FILES (X86)\WINDOWS KITS\10\INCLUDE\10.0.16299.0\UCRT\LOCALE.H
C:\PROGRAM FILES (X86)\MICROSOFT VISUAL STUDIO\2017\COMMUNITY\VC\TOOLS\MSVC\14.12.25827\INCLUDE\XFACET
C:\PROGRAM FILES (X86)\MICROSOFT VISUAL STUDIO\2017\COMMUNITY\VC\TOOLS\MSVC\14.12.25827\INCLUDE\SYSTEM_ERROR
C:\PROGRAM FILES (X86)\MICROSOFT VISUAL STUDIO\2017\COMMUNITY\VC\TOOLS\MSVC\14.12.25827\INCLUDE\CERRNO
C:\PROGRAM FILES (X86)\MICROSOFT VISUAL STUDIO\2017\COMMUNITY\VC\TOOLS\MSVC\14.12.25827\INCLUDE\XCALL_ONCE.H
C:\PROGRAM FILES (X86)\WINDOWS KITS\10\INCLUDE\10.0.16299.0\UCRT\SHARE.H
C:\PROGRAM FILES (X86)\MICROSOFT VISUAL STUDIO\2017\COMMUNITY\VC\TOOLS\MSVC\14.12.25827\INCLUDE\XSTRING_INSERT.H
C:\PROGRAM FILES (X86)\MICROSOFT VISUAL STUDIO\2017\COMMUNITY\VC\TOOLS\MSVC\14.12.25827\INCLUDE\XCOMPLEX
S:\PROJECTS\CPP\CODE\MATHS\EIGEN-GIT-MIRROR\EIGEN\SRC\CORE\UTIL\MKL_SUPPORT.H
C:\PROGRAM FILES (X86)\MICROSOFT VISUAL STUDIO\2017\COMMUNITY\VC\TOOLS\MSVC\14.12.25827\INCLUDE\MMINTRIN.H
C:\PROGRAM FILES (X86)\MICROSOFT VISUAL STUDIO\2017\COMMUNITY\VC\TOOLS\MSVC\14.12.25827\INCLUDE\EMMINTRIN.H
C:\PROGRAM FILES (X86)\MICROSOFT VISUAL STUDIO\2017\COMMUNITY\VC\TOOLS\MSVC\14.12.25827\INCLUDE\XMMINTRIN.H
C:\PROGRAM FILES (X86)\MICROSOFT VISUAL STUDIO\2017\COMMUNITY\VC\TOOLS\MSVC\14.12.25827\INCLUDE\CASSERT
C:\PROGRAM FILES (X86)\WINDOWS KITS\10\INCLUDE\10.0.16299.0\UCRT\ASSERT.H
C:\PROGRAM FILES (X86)\MICROSOFT VISUAL STUDIO\2017\COMMUNITY\VC\TOOLS\MSVC\14.12.25827\INCLUDE\FUNCTIONAL
C:\PROGRAM FILES (X86)\MICROSOFT VISUAL STUDIO\2017\COMMUNITY\VC\TOOLS\MSVC\14.12.25827\INCLUDE\TUPLE
C:\PROGRAM FILES (X86)\MICROSOFT VISUAL STUDIO\2017\COMMUNITY\VC\TOOLS\MSVC\14.12.25827\INCLUDE\XFUNCTIONAL
C:\PROGRAM FILES (X86)\MICROSOFT VISUAL STUDIO\2017\COMMUNITY\VC\TOOLS\MSVC\14.12.25827\INCLUDE\ALGORITHM
C:\PROGRAM FILES (X86)\MICROSOFT VISUAL STUDIO\2017\COMMUNITY\VC\TOOLS\MSVC\14.12.25827\INCLUDE\XMEMORY
C:\PROGRAM FILES (X86)\MICROSOFT VISUAL STUDIO\2017\COMMUNITY\VC\TOOLS\MSVC\14.12.25827\INCLUDE\INTRIN.H
C:\PROGRAM FILES (X86)\MICROSOFT VISUAL STUDIO\2017\COMMUNITY\VC\TOOLS\MSVC\14.12.25827\INCLUDE\SETJMP.H
C:\PROGRAM FILES (X86)\MICROSOFT VISUAL STUDIO\2017\COMMUNITY\VC\TOOLS\MSVC\14.12.25827\INCLUDE\IMMINTRIN.H
C:\PROGRAM FILES (X86)\MICROSOFT VISUAL STUDIO\2017\COMMUNITY\VC\TOOLS\MSVC\14.12.25827\INCLUDE\WMMINTRIN.H
C:\PROGRAM FILES (X86)\MICROSOFT VISUAL STUDIO\2017\COMMUNITY\VC\TOOLS\MSVC\14.12.25827\INCLUDE\NMMINTRIN.H
C:\PROGRAM FILES (X86)\MICROSOFT VISUAL STUDIO\2017\COMMUNITY\VC\TOOLS\MSVC\14.12.25827\INCLUDE\SMMINTRIN.H
C:\PROGRAM FILES (X86)\MICROSOFT VISUAL STUDIO\2017\COMMUNITY\VC\TOOLS\MSVC\14.12.25827\INCLUDE\TMMINTRIN.H
C:\PROGRAM FILES (X86)\MICROSOFT VISUAL STUDIO\2017\COMMUNITY\VC\TOOLS\MSVC\14.12.25827\INCLUDE\PMMINTRIN.H
C:\PROGRAM FILES (X86)\MICROSOFT VISUAL STUDIO\2017\COMMUNITY\VC\TOOLS\MSVC\14.12.25827\INCLUDE\ZMMINTRIN.H
C:\PROGRAM FILES (X86)\MICROSOFT VISUAL STUDIO\2017\COMMUNITY\VC\TOOLS\MSVC\14.12.25827\INCLUDE\AMMINTRIN.H
C:\PROGRAM FILES (X86)\MICROSOFT VISUAL STUDIO\2017\COMMUNITY\VC\TOOLS\MSVC\14.12.25827\INCLUDE\MM3DNOW.H
S:\PROJECTS\CPP\CODE\MATHS\EIGEN-GIT-MIRROR\EIGEN\SRC\CORE\UTIL\CONSTANTS.H
S:\PROJECTS\CPP\CODE\MATHS\EIGEN-GIT-MIRROR\EIGEN\SRC\CORE\UTIL\META.H
S:\PROJECTS\CPP\CODE\MATHS\EIGEN-GIT-MIRROR\EIGEN\SRC\CORE\UTIL\FORWARDDECLARATIONS.H
S:\PROJECTS\CPP\CODE\MATHS\EIGEN-GIT-MIRROR\EIGEN\SRC\CORE\UTIL\STATICASSERT.H
S:\PROJECTS\CPP\CODE\MATHS\EIGEN-GIT-MIRROR\EIGEN\SRC\CORE\UTIL\XPRHELPER.H
S:\PROJECTS\CPP\CODE\MATHS\EIGEN-GIT-MIRROR\EIGEN\SRC\CORE\UTIL\MEMORY.H
S:\PROJECTS\CPP\CODE\MATHS\EIGEN-GIT-MIRROR\EIGEN\SRC\CORE\UTIL\INTEGRALCONSTANT.H
S:\PROJECTS\CPP\CODE\MATHS\EIGEN-GIT-MIRROR\EIGEN\SRC\CORE\UTIL\SYMBOLICINDEX.H
S:\PROJECTS\CPP\CODE\MATHS\EIGEN-GIT-MIRROR\EIGEN\SRC\CORE\NUMTRAITS.H
S:\PROJECTS\CPP\CODE\MATHS\EIGEN-GIT-MIRROR\EIGEN\SRC\CORE\MATHFUNCTIONS.H
S:\PROJECTS\CPP\CODE\MATHS\EIGEN-GIT-MIRROR\EIGEN\SRC\CORE\GENERICPACKETMATH.H
S:\PROJECTS\CPP\CODE\MATHS\EIGEN-GIT-MIRROR\EIGEN\SRC\CORE\MATHFUNCTIONSIMPL.H
S:\PROJECTS\CPP\CODE\MATHS\EIGEN-GIT-MIRROR\EIGEN\SRC\CORE\ARCH\DEFAULT\CONJHELPER.H
S:\PROJECTS\CPP\CODE\MATHS\EIGEN-GIT-MIRROR\EIGEN\SRC\CORE\ARCH\SSE\PACKETMATH.H
S:\PROJECTS\CPP\CODE\MATHS\EIGEN-GIT-MIRROR\EIGEN\SRC\CORE\ARCH\SSE\MATHFUNCTIONS.H
S:\PROJECTS\CPP\CODE\MATHS\EIGEN-GIT-MIRROR\EIGEN\SRC\CORE\ARCH\SSE\COMPLEX.H
S:\PROJECTS\CPP\CODE\MATHS\EIGEN-GIT-MIRROR\EIGEN\SRC\CORE\ARCH\SSE\TYPECASTING.H
S:\PROJECTS\CPP\CODE\MATHS\EIGEN-GIT-MIRROR\EIGEN\SRC\CORE\ARCH\CUDA\HALF.H
S:\PROJECTS\CPP\CODE\MATHS\EIGEN-GIT-MIRROR\EIGEN\SRC\CORE\ARCH\CUDA\PACKETMATHHALF.H
S:\PROJECTS\CPP\CODE\MATHS\EIGEN-GIT-MIRROR\EIGEN\SRC\CORE\ARCH\CUDA\TYPECASTING.H
S:\PROJECTS\CPP\CODE\MATHS\EIGEN-GIT-MIRROR\EIGEN\SRC\CORE\ARCH\DEFAULT\SETTINGS.H
S:\PROJECTS\CPP\CODE\MATHS\EIGEN-GIT-MIRROR\EIGEN\SRC\CORE\FUNCTORS\TERNARYFUNCTORS.H
S:\PROJECTS\CPP\CODE\MATHS\EIGEN-GIT-MIRROR\EIGEN\SRC\CORE\FUNCTORS\BINARYFUNCTORS.H
S:\PROJECTS\CPP\CODE\MATHS\EIGEN-GIT-MIRROR\EIGEN\SRC\CORE\FUNCTORS\UNARYFUNCTORS.H
S:\PROJECTS\CPP\CODE\MATHS\EIGEN-GIT-MIRROR\EIGEN\SRC\CORE\FUNCTORS\NULLARYFUNCTORS.H
S:\PROJECTS\CPP\CODE\MATHS\EIGEN-GIT-MIRROR\EIGEN\SRC\CORE\FUNCTORS\STLFUNCTORS.H
S:\PROJECTS\CPP\CODE\MATHS\EIGEN-GIT-MIRROR\EIGEN\SRC\CORE\FUNCTORS\ASSIGNMENTFUNCTORS.H
S:\PROJECTS\CPP\CODE\MATHS\EIGEN-GIT-MIRROR\EIGEN\SRC\CORE\ARCH\CUDA\COMPLEX.H
S:\PROJECTS\CPP\CODE\MATHS\EIGEN-GIT-MIRROR\EIGEN\SRC\CORE\UTIL\INDEXEDVIEWHELPER.H
S:\PROJECTS\CPP\CODE\MATHS\EIGEN-GIT-MIRROR\EIGEN\SRC\CORE\ARITHMETICSEQUENCE.H
S:\PROJECTS\CPP\CODE\MATHS\EIGEN-GIT-MIRROR\EIGEN\SRC\CORE\IO.H
S:\PROJECTS\CPP\CODE\MATHS\EIGEN-GIT-MIRROR\EIGEN\SRC\CORE\DENSECOEFFSBASE.H
S:\PROJECTS\CPP\CODE\MATHS\EIGEN-GIT-MIRROR\EIGEN\SRC\CORE\DENSEBASE.H
S:\PROJECTS\CPP\CODE\MATHS\EIGEN-GIT-MIRROR\EIGEN\SRC\PLUGINS\COMMONCWISEUNARYOPS.H
S:\PROJECTS\CPP\CODE\MATHS\EIGEN-GIT-MIRROR\EIGEN\SRC\PLUGINS\BLOCKMETHODS.H
S:\PROJECTS\CPP\CODE\MATHS\EIGEN-GIT-MIRROR\EIGEN\SRC\PLUGINS\INDEXEDVIEWMETHODS.H
S:\PROJECTS\CPP\CODE\MATHS\EIGEN-GIT-MIRROR\EIGEN\SRC\CORE\MATRIXBASE.H
S:\PROJECTS\CPP\CODE\MATHS\EIGEN-GIT-MIRROR\EIGEN\SRC\PLUGINS\COMMONCWISEBINARYOPS.H
S:\PROJECTS\CPP\CODE\MATHS\EIGEN-GIT-MIRROR\EIGEN\SRC\PLUGINS\MATRIXCWISEUNARYOPS.H
S:\PROJECTS\CPP\CODE\MATHS\EIGEN-GIT-MIRROR\EIGEN\SRC\PLUGINS\MATRIXCWISEBINARYOPS.H
S:\PROJECTS\CPP\CODE\MATHS\EIGEN-GIT-MIRROR\EIGEN\SRC\CORE\EIGENBASE.H
S:\PROJECTS\CPP\CODE\MATHS\EIGEN-GIT-MIRROR\EIGEN\SRC\CORE\PRODUCT.H
S:\PROJECTS\CPP\CODE\MATHS\EIGEN-GIT-MIRROR\EIGEN\SRC\CORE\COREEVALUATORS.H
S:\PROJECTS\CPP\CODE\MATHS\EIGEN-GIT-MIRROR\EIGEN\SRC\CORE\ASSIGNEVALUATOR.H
S:\PROJECTS\CPP\CODE\MATHS\EIGEN-GIT-MIRROR\EIGEN\SRC\CORE\ASSIGN.H
S:\PROJECTS\CPP\CODE\MATHS\EIGEN-GIT-MIRROR\EIGEN\SRC\CORE\ARRAYBASE.H
S:\PROJECTS\CPP\CODE\MATHS\EIGEN-GIT-MIRROR\EIGEN\SRC\PLUGINS\ARRAYCWISEUNARYOPS.H
S:\PROJECTS\CPP\CODE\MATHS\EIGEN-GIT-MIRROR\EIGEN\SRC\PLUGINS\ARRAYCWISEBINARYOPS.H
S:\PROJECTS\CPP\CODE\MATHS\EIGEN-GIT-MIRROR\EIGEN\SRC\CORE\UTIL\BLASUTIL.H
S:\PROJECTS\CPP\CODE\MATHS\EIGEN-GIT-MIRROR\EIGEN\SRC\CORE\DENSESTORAGE.H
S:\PROJECTS\CPP\CODE\MATHS\EIGEN-GIT-MIRROR\EIGEN\SRC\CORE\NESTBYVALUE.H
S:\PROJECTS\CPP\CODE\MATHS\EIGEN-GIT-MIRROR\EIGEN\SRC\CORE\RETURNBYVALUE.H
S:\PROJECTS\CPP\CODE\MATHS\EIGEN-GIT-MIRROR\EIGEN\SRC\CORE\NOALIAS.H
S:\PROJECTS\CPP\CODE\MATHS\EIGEN-GIT-MIRROR\EIGEN\SRC\CORE\PLAINOBJECTBASE.H
S:\PROJECTS\CPP\CODE\MATHS\EIGEN-GIT-MIRROR\EIGEN\SRC\CORE\MATRIX.H
S:\PROJECTS\CPP\CODE\MATHS\EIGEN-GIT-MIRROR\EIGEN\SRC\CORE\ARRAY.H
S:\PROJECTS\CPP\CODE\MATHS\EIGEN-GIT-MIRROR\EIGEN\SRC\CORE\CWISETERNARYOP.H
S:\PROJECTS\CPP\CODE\MATHS\EIGEN-GIT-MIRROR\EIGEN\SRC\CORE\CWISEBINARYOP.H
S:\PROJECTS\CPP\CODE\MATHS\EIGEN-GIT-MIRROR\EIGEN\SRC\CORE\CWISEUNARYOP.H
S:\PROJECTS\CPP\CODE\MATHS\EIGEN-GIT-MIRROR\EIGEN\SRC\CORE\CWISENULLARYOP.H
S:\PROJECTS\CPP\CODE\MATHS\EIGEN-GIT-MIRROR\EIGEN\SRC\CORE\CWISEUNARYVIEW.H
S:\PROJECTS\CPP\CODE\MATHS\EIGEN-GIT-MIRROR\EIGEN\SRC\CORE\SELFCWISEBINARYOP.H
S:\PROJECTS\CPP\CODE\MATHS\EIGEN-GIT-MIRROR\EIGEN\SRC\CORE\DOT.H
S:\PROJECTS\CPP\CODE\MATHS\EIGEN-GIT-MIRROR\EIGEN\SRC\CORE\STABLENORM.H
S:\PROJECTS\CPP\CODE\MATHS\EIGEN-GIT-MIRROR\EIGEN\SRC\CORE\STRIDE.H
S:\PROJECTS\CPP\CODE\MATHS\EIGEN-GIT-MIRROR\EIGEN\SRC\CORE\MAPBASE.H
S:\PROJECTS\CPP\CODE\MATHS\EIGEN-GIT-MIRROR\EIGEN\SRC\CORE\MAP.H
S:\PROJECTS\CPP\CODE\MATHS\EIGEN-GIT-MIRROR\EIGEN\SRC\CORE\REF.H
S:\PROJECTS\CPP\CODE\MATHS\EIGEN-GIT-MIRROR\EIGEN\SRC\CORE\BLOCK.H
S:\PROJECTS\CPP\CODE\MATHS\EIGEN-GIT-MIRROR\EIGEN\SRC\CORE\VECTORBLOCK.H
S:\PROJECTS\CPP\CODE\MATHS\EIGEN-GIT-MIRROR\EIGEN\SRC\CORE\INDEXEDVIEW.H
S:\PROJECTS\CPP\CODE\MATHS\EIGEN-GIT-MIRROR\EIGEN\SRC\CORE\TRANSPOSE.H
S:\PROJECTS\CPP\CODE\MATHS\EIGEN-GIT-MIRROR\EIGEN\SRC\CORE\DIAGONALMATRIX.H
S:\PROJECTS\CPP\CODE\MATHS\EIGEN-GIT-MIRROR\EIGEN\SRC\CORE\DIAGONAL.H
S:\PROJECTS\CPP\CODE\MATHS\EIGEN-GIT-MIRROR\EIGEN\SRC\CORE\DIAGONALPRODUCT.H
S:\PROJECTS\CPP\CODE\MATHS\EIGEN-GIT-MIRROR\EIGEN\SRC\CORE\REDUX.H
S:\PROJECTS\CPP\CODE\MATHS\EIGEN-GIT-MIRROR\EIGEN\SRC\CORE\VISITOR.H
S:\PROJECTS\CPP\CODE\MATHS\EIGEN-GIT-MIRROR\EIGEN\SRC\CORE\FUZZY.H
S:\PROJECTS\CPP\CODE\MATHS\EIGEN-GIT-MIRROR\EIGEN\SRC\CORE\SWAP.H
S:\PROJECTS\CPP\CODE\MATHS\EIGEN-GIT-MIRROR\EIGEN\SRC\CORE\COMMAINITIALIZER.H
S:\PROJECTS\CPP\CODE\MATHS\EIGEN-GIT-MIRROR\EIGEN\SRC\CORE\GENERALPRODUCT.H
S:\PROJECTS\CPP\CODE\MATHS\EIGEN-GIT-MIRROR\EIGEN\SRC\CORE\SOLVE.H
S:\PROJECTS\CPP\CODE\MATHS\EIGEN-GIT-MIRROR\EIGEN\SRC\CORE\INVERSE.H
S:\PROJECTS\CPP\CODE\MATHS\EIGEN-GIT-MIRROR\EIGEN\SRC\CORE\SOLVERBASE.H
S:\PROJECTS\CPP\CODE\MATHS\EIGEN-GIT-MIRROR\EIGEN\SRC\CORE\PERMUTATIONMATRIX.H
S:\PROJECTS\CPP\CODE\MATHS\EIGEN-GIT-MIRROR\EIGEN\SRC\CORE\TRANSPOSITIONS.H
S:\PROJECTS\CPP\CODE\MATHS\EIGEN-GIT-MIRROR\EIGEN\SRC\CORE\TRIANGULARMATRIX.H
S:\PROJECTS\CPP\CODE\MATHS\EIGEN-GIT-MIRROR\EIGEN\SRC\CORE\SELFADJOINTVIEW.H
S:\PROJECTS\CPP\CODE\MATHS\EIGEN-GIT-MIRROR\EIGEN\SRC\CORE\PRODUCTS\GENERALBLOCKPANELKERNEL.H
S:\PROJECTS\CPP\CODE\MATHS\EIGEN-GIT-MIRROR\EIGEN\SRC\CORE\PRODUCTS\PARALLELIZER.H
S:\PROJECTS\CPP\CODE\MATHS\EIGEN-GIT-MIRROR\EIGEN\SRC\CORE\PRODUCTEVALUATORS.H
S:\PROJECTS\CPP\CODE\MATHS\EIGEN-GIT-MIRROR\EIGEN\SRC\CORE\PRODUCTS\GENERALMATRIXVECTOR.H
S:\PROJECTS\CPP\CODE\MATHS\EIGEN-GIT-MIRROR\EIGEN\SRC\CORE\PRODUCTS\GENERALMATRIXMATRIX.H
S:\PROJECTS\CPP\CODE\MATHS\EIGEN-GIT-MIRROR\EIGEN\SRC\CORE\SOLVETRIANGULAR.H
S:\PROJECTS\CPP\CODE\MATHS\EIGEN-GIT-MIRROR\EIGEN\SRC\CORE\PRODUCTS\GENERALMATRIXMATRIXTRIANGULAR.H
S:\PROJECTS\CPP\CODE\MATHS\EIGEN-GIT-MIRROR\EIGEN\SRC\CORE\PRODUCTS\SELFADJOINTMATRIXVECTOR.H
S:\PROJECTS\CPP\CODE\MATHS\EIGEN-GIT-MIRROR\EIGEN\SRC\CORE\PRODUCTS\SELFADJOINTMATRIXMATRIX.H
S:\PROJECTS\CPP\CODE\MATHS\EIGEN-GIT-MIRROR\EIGEN\SRC\CORE\PRODUCTS\SELFADJOINTPRODUCT.H
S:\PROJECTS\CPP\CODE\MATHS\EIGEN-GIT-MIRROR\EIGEN\SRC\CORE\PRODUCTS\SELFADJOINTRANK2UPDATE.H
S:\PROJECTS\CPP\CODE\MATHS\EIGEN-GIT-MIRROR\EIGEN\SRC\CORE\PRODUCTS\TRIANGULARMATRIXVECTOR.H
S:\PROJECTS\CPP\CODE\MATHS\EIGEN-GIT-MIRROR\EIGEN\SRC\CORE\PRODUCTS\TRIANGULARMATRIXMATRIX.H
S:\PROJECTS\CPP\CODE\MATHS\EIGEN-GIT-MIRROR\EIGEN\SRC\CORE\PRODUCTS\TRIANGULARSOLVERMATRIX.H
S:\PROJECTS\CPP\CODE\MATHS\EIGEN-GIT-MIRROR\EIGEN\SRC\CORE\PRODUCTS\TRIANGULARSOLVERVECTOR.H
S:\PROJECTS\CPP\CODE\MATHS\EIGEN-GIT-MIRROR\EIGEN\SRC\CORE\BANDMATRIX.H
S:\PROJECTS\CPP\CODE\MATHS\EIGEN-GIT-MIRROR\EIGEN\SRC\CORE\COREITERATORS.H
S:\PROJECTS\CPP\CODE\MATHS\EIGEN-GIT-MIRROR\EIGEN\SRC\CORE\CONDITIONESTIMATOR.H
S:\PROJECTS\CPP\CODE\MATHS\EIGEN-GIT-MIRROR\EIGEN\SRC\CORE\BOOLEANREDUX.H
S:\PROJECTS\CPP\CODE\MATHS\EIGEN-GIT-MIRROR\EIGEN\SRC\CORE\SELECT.H
S:\PROJECTS\CPP\CODE\MATHS\EIGEN-GIT-MIRROR\EIGEN\SRC\CORE\VECTORWISEOP.H
S:\PROJECTS\CPP\CODE\MATHS\EIGEN-GIT-MIRROR\EIGEN\SRC\CORE\RANDOM.H
S:\PROJECTS\CPP\CODE\MATHS\EIGEN-GIT-MIRROR\EIGEN\SRC\CORE\REPLICATE.H
S:\PROJECTS\CPP\CODE\MATHS\EIGEN-GIT-MIRROR\EIGEN\SRC\CORE\REVERSE.H
S:\PROJECTS\CPP\CODE\MATHS\EIGEN-GIT-MIRROR\EIGEN\SRC\CORE\ARRAYWRAPPER.H
S:\PROJECTS\CPP\CODE\MATHS\EIGEN-GIT-MIRROR\EIGEN\SRC\CORE\GLOBALFUNCTIONS.H
S:\PROJECTS\CPP\CODE\MATHS\EIGEN-GIT-MIRROR\EIGEN\SRC\CORE\UTIL\REENABLESTUPIDWARNINGS.H
S:\PROJECTS\CPP\CODE\MATHS\EIGEN-GIT-MIRROR\EIGEN\SVD
S:\PROJECTS\CPP\CODE\MATHS\EIGEN-GIT-MIRROR\EIGEN\QR
S:\PROJECTS\CPP\CODE\MATHS\EIGEN-GIT-MIRROR\EIGEN\CHOLESKY
S:\PROJECTS\CPP\CODE\MATHS\EIGEN-GIT-MIRROR\EIGEN\JACOBI
S:\PROJECTS\CPP\CODE\MATHS\EIGEN-GIT-MIRROR\EIGEN\SRC\JACOBI\JACOBI.H
S:\PROJECTS\CPP\CODE\MATHS\EIGEN-GIT-MIRROR\EIGEN\SRC\CHOLESKY\LLT.H
S:\PROJECTS\CPP\CODE\MATHS\EIGEN-GIT-MIRROR\EIGEN\SRC\CHOLESKY\LDLT.H
S:\PROJECTS\CPP\CODE\MATHS\EIGEN-GIT-MIRROR\EIGEN\HOUSEHOLDER
S:\PROJECTS\CPP\CODE\MATHS\EIGEN-GIT-MIRROR\EIGEN\SRC\HOUSEHOLDER\HOUSEHOLDER.H
S:\PROJECTS\CPP\CODE\MATHS\EIGEN-GIT-MIRROR\EIGEN\SRC\HOUSEHOLDER\HOUSEHOLDERSEQUENCE.H
S:\PROJECTS\CPP\CODE\MATHS\EIGEN-GIT-MIRROR\EIGEN\SRC\HOUSEHOLDER\BLOCKHOUSEHOLDER.H
S:\PROJECTS\CPP\CODE\MATHS\EIGEN-GIT-MIRROR\EIGEN\SRC\QR\HOUSEHOLDERQR.H
S:\PROJECTS\CPP\CODE\MATHS\EIGEN-GIT-MIRROR\EIGEN\SRC\QR\FULLPIVHOUSEHOLDERQR.H
S:\PROJECTS\CPP\CODE\MATHS\EIGEN-GIT-MIRROR\EIGEN\SRC\QR\COLPIVHOUSEHOLDERQR.H
S:\PROJECTS\CPP\CODE\MATHS\EIGEN-GIT-MIRROR\EIGEN\SRC\QR\COMPLETEORTHOGONALDECOMPOSITION.H
S:\PROJECTS\CPP\CODE\MATHS\EIGEN-GIT-MIRROR\EIGEN\SRC\MISC\REALSVD2X2.H
S:\PROJECTS\CPP\CODE\MATHS\EIGEN-GIT-MIRROR\EIGEN\SRC\SVD\UPPERBIDIAGONALIZATION.H
S:\PROJECTS\CPP\CODE\MATHS\EIGEN-GIT-MIRROR\EIGEN\SRC\SVD\SVDBASE.H
S:\PROJECTS\CPP\CODE\MATHS\EIGEN-GIT-MIRROR\EIGEN\SRC\SVD\JACOBISVD.H
S:\PROJECTS\CPP\CODE\MATHS\EIGEN-GIT-MIRROR\EIGEN\SRC\SVD\BDCSVD.H
S:\PROJECTS\CPP\CODE\MATHS\EIGEN-GIT-MIRROR\EIGEN\LU
S:\PROJECTS\CPP\CODE\MATHS\EIGEN-GIT-MIRROR\EIGEN\SRC\MISC\KERNEL.H
S:\PROJECTS\CPP\CODE\MATHS\EIGEN-GIT-MIRROR\EIGEN\SRC\MISC\IMAGE.H
S:\PROJECTS\CPP\CODE\MATHS\EIGEN-GIT-MIRROR\EIGEN\SRC\LU\FULLPIVLU.H
S:\PROJECTS\CPP\CODE\MATHS\EIGEN-GIT-MIRROR\EIGEN\SRC\LU\PARTIALPIVLU.H
S:\PROJECTS\CPP\CODE\MATHS\EIGEN-GIT-MIRROR\EIGEN\SRC\LU\DETERMINANT.H
S:\PROJECTS\CPP\CODE\MATHS\EIGEN-GIT-MIRROR\EIGEN\SRC\LU\INVERSEIMPL.H
S:\PROJECTS\CPP\CODE\MATHS\EIGEN-GIT-MIRROR\EIGEN\SRC\LU\ARCH\INVERSE_SSE.H
S:\PROJECTS\CPP\CODE\MATHS\EIGEN-GIT-MIRROR\EIGEN\SRC\GEOMETRY\ORTHOMETHODS.H
S:\PROJECTS\CPP\CODE\MATHS\EIGEN-GIT-MIRROR\EIGEN\SRC\GEOMETRY\EULERANGLES.H
S:\PROJECTS\CPP\CODE\MATHS\EIGEN-GIT-MIRROR\EIGEN\SRC\GEOMETRY\HOMOGENEOUS.H
S:\PROJECTS\CPP\CODE\MATHS\EIGEN-GIT-MIRROR\EIGEN\SRC\GEOMETRY\ROTATIONBASE.H
S:\PROJECTS\CPP\CODE\MATHS\EIGEN-GIT-MIRROR\EIGEN\SRC\GEOMETRY\ROTATION2D.H
S:\PROJECTS\CPP\CODE\MATHS\EIGEN-GIT-MIRROR\EIGEN\SRC\GEOMETRY\QUATERNION.H
S:\PROJECTS\CPP\CODE\MATHS\EIGEN-GIT-MIRROR\EIGEN\SRC\GEOMETRY\ANGLEAXIS.H
S:\PROJECTS\CPP\CODE\MATHS\EIGEN-GIT-MIRROR\EIGEN\SRC\GEOMETRY\TRANSFORM.H
S:\PROJECTS\CPP\CODE\MATHS\EIGEN-GIT-MIRROR\EIGEN\SRC\GEOMETRY\TRANSLATION.H
S:\PROJECTS\CPP\CODE\MATHS\EIGEN-GIT-MIRROR\EIGEN\SRC\GEOMETRY\SCALING.H
S:\PROJECTS\CPP\CODE\MATHS\EIGEN-GIT-MIRROR\EIGEN\SRC\GEOMETRY\HYPERPLANE.H
S:\PROJECTS\CPP\CODE\MATHS\EIGEN-GIT-MIRROR\EIGEN\SRC\GEOMETRY\PARAMETRIZEDLINE.H
S:\PROJECTS\CPP\CODE\MATHS\EIGEN-GIT-MIRROR\EIGEN\SRC\GEOMETRY\ALIGNEDBOX.H
S:\PROJECTS\CPP\CODE\MATHS\EIGEN-GIT-MIRROR\EIGEN\SRC\GEOMETRY\UMEYAMA.H
S:\PROJECTS\CPP\CODE\MATHS\EIGEN-GIT-MIRROR\EIGEN\SRC\GEOMETRY\ARCH\GEOMETRY_SSE.H
