^S:\PROJECTS\CPP\CODE\FRAMETRANSFORMATIONS\FRAMETRANSFORMATIONUNITTESTS\STDAFX.CPP
/c /I"C:\PROGRAM FILES (X86)\MICROSOFT VISUAL STUDIO\2017\COMMUNITY\VC\UNITTEST\INCLUDE" /ZI /nologo /W3 /WX- /diagnostics:classic /Od /Oy- /D WIN32 /D _DEBUG /D _WINDLL /D _UNICODE /D UNICODE /Gm /EHsc /RTC1 /MDd /GS /fp:precise /Zc:wchar_t /Zc:forScope /Zc:inline /Yc"stdafx.h" /Fp"DEBUG\FRAMETRANSFORMATIONUNITTESTS.PCH" /Fo"DEBUG\\" /Fd"DEBUG\VC141.PDB" /Gd /TP /analyze- /FC S:\PROJECTS\CPP\CODE\FRAMETRANSFORMATIONS\FRAMETRANSFORMATIONUNITTESTS\STDAFX.CPP
^S:\PROJECTS\CPP\CODE\FRAMETRANSFORMATIONS\FRAMETRANSFORMATIONUNITTESTS\UNITTEST1.CPP
/c /I"C:\PROGRAM FILES (X86)\MICROSOFT VISUAL STUDIO\2017\COMMUNITY\VC\UNITTEST\INCLUDE" /ZI /nologo /W3 /WX- /diagnostics:classic /Od /Oy- /D WIN32 /D _DEBUG /D _WINDLL /D _UNICODE /D UNICODE /Gm /EHsc /RTC1 /MDd /GS /fp:precise /Zc:wchar_t /Zc:forScope /Zc:inline /Yu"stdafx.h" /Fp"DEBUG\FRAMETRANSFORMATIONUNITTESTS.PCH" /Fo"DEBUG\\" /Fd"DEBUG\VC141.PDB" /Gd /TP /analyze- /FC S:\PROJECTS\CPP\CODE\FRAMETRANSFORMATIONS\FRAMETRANSFORMATIONUNITTESTS\UNITTEST1.CPP
