^S:\PROJECTS\CPP\CODE\FRAMETRANSFORMATIONS\FRAMETRANSFORMATIONUNITTESTS\STDAFX.CPP
S:\PROJECTS\CPP\CODE\FRAMETRANSFORMATIONS\FRAMETRANSFORMATIONUNITTESTS\DEBUG\FRAMETRANSFORMATIONUNITTESTS.PCH
S:\PROJECTS\CPP\CODE\FRAMETRANSFORMATIONS\FRAMETRANSFORMATIONUNITTESTS\DEBUG\VC141.PDB
S:\PROJECTS\CPP\CODE\FRAMETRANSFORMATIONS\FRAMETRANSFORMATIONUNITTESTS\DEBUG\VC141.IDB
S:\PROJECTS\CPP\CODE\FRAMETRANSFORMATIONS\FRAMETRANSFORMATIONUNITTESTS\DEBUG\STDAFX.OBJ
^S:\PROJECTS\CPP\CODE\FRAMETRANSFORMATIONS\FRAMETRANSFORMATIONUNITTESTS\UNITTEST1.CPP
S:\PROJECTS\CPP\CODE\FRAMETRANSFORMATIONS\FRAMETRANSFORMATIONUNITTESTS\DEBUG\VC141.PDB
S:\PROJECTS\CPP\CODE\FRAMETRANSFORMATIONS\FRAMETRANSFORMATIONUNITTESTS\DEBUG\VC141.IDB
S:\PROJECTS\CPP\CODE\FRAMETRANSFORMATIONS\FRAMETRANSFORMATIONUNITTESTS\DEBUG\UNITTEST1.OBJ
