^S:\Projects\Cpp\Code\FrameTransformations\FrameTransformationUnitTests\FrameTransformationUnitTests.vcxproj
S:\Projects\Cpp\Code\FrameTransformations\Debug\FrameTransformationUnitTests.lib
S:\Projects\Cpp\Code\FrameTransformations\Debug\FrameTransformationUnitTests.exp
